module cart

go 1.20

require (
	github.com/golang/protobuf v1.5.2
	github.com/grpc-ecosystem/grpc-gateway v1.16.0
	golang.org/x/net v0.0.0-20220127200216-cd36cc0744dd
	google.golang.org/grpc v1.48.0
	google.golang.org/protobuf v1.28.0
)

require (
	github.com/google/go-cmp v0.5.8 // indirect
	golang.org/x/sys v0.0.0-20211216021012-1d35b9e2eb4e // indirect
	golang.org/x/text v0.3.7 // indirect
	google.golang.org/genproto v0.0.0-20220519153652-3a47de7e79bd // indirect
)
