{
  "swagger": "2.0",
  "info": {
    "title": "cart.proto",
    "version": "version not set"
  },
  "schemes": [
    "http",
    "https"
  ],
  "consumes": [
    "application/json"
  ],
  "produces": [
    "application/json"
  ],
  "paths": {
    "/v1/ping": {
      "get": {
        "operationId": "Ping",
        "responses": {
          "200": {
            "description": "A successful response.",
            "schema": {
              "$ref": "#/definitions/cartPingResponse"
            }
          }
        },
        "tags": [
          "CartService"
        ]
      }
    }
  },
  "definitions": {
    "cartPingResponse": {
      "type": "object",
      "properties": {
        "code": {
          "type": "integer",
          "format": "int32"
        },
        "message": {
          "type": "string"
        }
      }
    }
  }
}
